{
    "stationMode": 0,
    "hostname": "illucat",
    "apSSID": "illucat",
    "apPassword": "illumination",
    "connectTimeout": 20000,
    "stationSSID": "MyWifi",
    "stationPassword": "myWifiPassword",
    "meshSSID": "illucat",
    "meshPassword": "illumination",
    "meshPort": 5555,
    "channel": 5
}